{
  "images" : [
    {
      "idiom" : "universal",
      "filename" : "magnifying-glass-icon-2_3_20x20.png",
      "scale" : "1x"
    },
    {
      "idiom" : "universal",
      "filename" : "magnifying-glass-icon-2_4_40x40.png",
      "scale" : "2x"
    },
    {
      "idiom" : "universal",
      "scale" : "3x"
    }
  ],
  "info" : {
    "version" : 1,
    "author" : "xcode"
  },
  "properties" : {
    "template-rendering-intent" : "original"
  }
}